…
Some of these categories are a bit quizzical; what are “fluffy”
passwords?

``` r
df_pass %>%
  filter(category == "fluffy")
```

    ## # A tibble: 44 x 9
    ##     rank password category value time_unit offline_crack_s… rank_alt
    ##    <dbl> <chr>    <chr>    <dbl> <chr>                <dbl>    <dbl>
    ##  1    42 love     fluffy    7.92 minutes         0.00000475       42
    ##  2    43 sunshine fluffy    6.91 years           2.17             43
    ##  3    54 silver   fluffy    3.72 days            0.00321          54
    ##  4    63 orange   fluffy    3.72 days            0.00321          63
    ##  5    70 ginger   fluffy    3.72 days            0.00321          70
    ##  6    73 summer   fluffy    3.72 days            0.00321          73
    ##  7    83 princess fluffy    6.91 years           2.17             83
    ##  8    88 diamond  fluffy    3.19 months          0.0835           88
    ##  9    89 yellow   fluffy    3.72 days            0.00321          89
    ## 10    99 iloveyou fluffy    6.91 years           2.17             99
    ## # … with 34 more rows, and 2 more variables: strength <dbl>,
    ## #   font_size <dbl>
…
This seems odd; I wonder what’s in that “spike” near 10 milliseconds?

``` r
df_pass %>%
  filter(
    1e-2 / 5 <= offline_crack_sec,
    offline_crack_sec <= 1e-2
  )
```

    ## # A tibble: 233 x 9
    ##     rank password category value time_unit offline_crack_s… rank_alt
    ##    <dbl> <chr>    <chr>    <dbl> <chr>                <dbl>    <dbl>
    ##  1     5 qwerty   simple-…  3.72 days               0.00321        5
    ##  2     7 dragon   animal    3.72 days               0.00321        7
    ##  3    11 monkey   animal    3.72 days               0.00321       11
    ##  4    16 shadow   cool-ma…  3.72 days               0.00321       16
    ##  5    17 master   cool-ma…  3.72 days               0.00321       17
    ##  6    21 jordan   name      3.72 days               0.00321       21
    ##  7    23 harley   cool-ma…  3.72 days               0.00321       23
    ##  8    25 hunter   cool-ma…  3.72 days               0.00321       25
    ##  9    27 ranger   cool-ma…  3.72 days               0.00321       27
    ## 10    28 buster   cool-ma…  3.72 days               0.00321       28
    ## # … with 223 more rows, and 2 more variables: strength <dbl>,
    ## #   font_size <dbl>
…
