…
There are `49` unique `track_title` values; this is what I’ll use to
group the song lyrics.

``` r
df_lyrics %>%
  group_by(track_title) %>%
  summarize(length = max(line)) %>%
  select(track_title, length)
```

    ## # A tibble: 49 x 2
    ##    track_title                  length
    ##    <chr>                         <dbl>
    ##  1 Adeste Fideles                   18
    ##  2 As the World Slept               NA
    ##  3 Better Off When I Was Hungry     12
    ##  4 Christmas                        NA
    ##  5 Christmas Carol                  NA
    ##  6 Christmas in Killarney           18
    ##  7 Come On Into My Arms             14
    ##  8 Faith Of Our Fathers             20
    ##  9 Feliz Navidad                    52
    ## 10 God Rest Ye Merry Gentlemen      30
    ## # … with 39 more rows

We don’t have lyric data on every song; let’s see how many have this
info.

``` r
df_lyrics %>%
  group_by(track_title) %>%
  summarize(length = max(line)) %>%
  select(track_title, length) %>%
  filter(!is.na(length)) %>%
  arrange(desc(length))
```

    ## # A tibble: 35 x 2
    ##    track_title                                                       length
    ##    <chr>                                                              <dbl>
    ##  1 Sing Noel                                                             71
    ##  2 Grandma Got Run Over by a Reindeer                                    53
    ##  3 Feliz Navidad                                                         52
    ##  4 The Cherry Tree Carol                                                 52
    ##  5 Santa Claus Is Coming to Town (Ft. The Andrews Sisters)               47
    ##  6 The Christmas Shoes                                                   46
    ##  7 The Little Drummer Boy                                                41
    ##  8 Silver Bells                                                          40
    ##  9 Its beginning to look a lot like christmas by Bing Crosby & The …     37
    ## 10 Light Your World                                                      37
    ## # … with 25 more rows
…
A couple issues with this analysis:

  - The sentiment database I use is English only; this won’t work well
    for some of the Spanish songs, e.g.

<!-- end list -->

``` r
df_lyrics_tokens %>% filter(track_title == "Las Posadas")
```

    ## # A tibble: 85 x 7
    ##    track_title  line word   sentiment song_n song_p value
    ##    <chr>       <dbl> <chr>  <chr>      <int>  <dbl> <dbl>
    ##  1 Las Posadas     1 en     neutral        1 0.0118     0
    ##  2 Las Posadas     1 nombre neutral        2 0.0235     0
    ##  3 Las Posadas     1 del    neutral        3 0.0353     0
    ##  4 Las Posadas     1 cielo  neutral        4 0.0471     0
    ##  5 Las Posadas     2 os     neutral        5 0.0588     0
    ##  6 Las Posadas     2 pido   neutral        6 0.0706     0
    ##  7 Las Posadas     2 posada neutral        7 0.0824     0
    ##  8 Las Posadas     3 pues   neutral        8 0.0941     0
    ##  9 Las Posadas     3 no     neutral        9 0.106      0
    ## 10 Las Posadas     3 puede  neutral       10 0.118      0
    ## # … with 75 more rows
…
