…
## Exceptions

<!-- ------------------------- -->

There are some oddities in these data: From poking around I found some
entries with `NA` fips:

``` r
df_counties %>%
  filter(is.na(fips)) %>%
  count(county, state) %>%
  arrange(desc(n))
```

    ## # A tibble: 48 x 3
    ##    county        state              n
    ##    <chr>         <chr>          <int>
    ##  1 New York City New York         115
    ##  2 Unknown       Rhode Island     115
    ##  3 Unknown       New Jersey       104
    ##  4 Unknown       Puerto Rico      103
    ##  5 Unknown       Virgin Islands   102
    ##  6 Unknown       Guam             101
    ##  7 Unknown       Massachusetts    100
    ##  8 Unknown       Louisiana         98
    ##  9 Kansas City   Missouri          96
    ## 10 Unknown       Arkansas          96
    ## # … with 38 more rows
…
