…
## [1] 2958

This is over 90% of the counties in the US; not quite complete, but the vast majority.

Exceptions

There are some oddities in these data: From poking around I found some entries with NA fips:

df_counties %>%
  filter(is.na(fips)) %>%
  count(county, state) %>%
  arrange(desc(n))

## # A tibble: 48 x 3
##    county        state              n
##    <chr>         <chr>          <int>
##  1 New York City New York          90
##  2 Unknown       Rhode Island      90
##  3 Unknown       New Jersey        79
##  4 Unknown       Puerto Rico       78
##  5 Unknown       Virgin Islands    77
##  6 Unknown       Guam              76
##  7 Unknown       Massachusetts     75
##  8 Unknown       Louisiana         73
##  9 Kansas City   Missouri          71
## 10 Unknown       Arkansas          71
## # … with 38 more rows
…
