…
``` r
## Trim head and notes
df_tmp <-
  df_raw %>%
  slice(-1) %>%
  slice(-(n()-5):-n())

## Detect notes and fill with NA
df_tmp %>%
  mutate(region = if_else(str_detect(region, "estimate|data"), NA_character_, region))
```

    ## # A tibble: 438 x 19
    ##    region sub_region territory source org   indicator `2000` `2001` `2002`
    ##    <chr>  <chr>      <chr>     <chr>  <chr> <chr>      <dbl>  <dbl>  <dbl>
    ##  1 Africa Eastern A… Burundi   PH     WHO   Rate          NA     NA     NA
    ##  2 <NA>   <NA>       <NA>      <NA>   <NA>  Count         NA     NA     NA
    ##  3 <NA>   <NA>       Comoros   PH     WHO   Rate          NA     NA     NA
    ##  4 <NA>   <NA>       <NA>      <NA>   <NA>  Count         NA     NA     NA
    ##  5 <NA>   <NA>       Djibouti  PH     WHO   Rate          NA     NA     NA
    ##  6 <NA>   <NA>       <NA>      <NA>   <NA>  Count         NA     NA     NA
    ##  7 <NA>   <NA>       Eritrea   PH     WHO   Rate          NA     NA     NA
    ##  8 <NA>   <NA>       <NA>      <NA>   <NA>  Count         NA     NA     NA
    ##  9 <NA>   <NA>       Ethiopia  PH     WHO   Rate          NA     NA     NA
    ## 10 <NA>   <NA>       <NA>      <NA>   <NA>  Count         NA     NA     NA
    ## # … with 428 more rows, and 10 more variables: `2003` <dbl>, `2004` <dbl>,
    ## #   `2005` <dbl>, `2006` <dbl>, `2007` <dbl>, `2008` <dbl>, `2009` <chr>,
    ## #   `2010` <chr>, `2011` <chr>, `2012` <chr>
…
