…
Why isn’t “The Simpsons” in this database? That’s weird.

What’s the distribution of seasons among shows?

``` r
df_imdb %>%
  group_by(titleId) %>%
  summarize(seasons = max(seasonNumber)) %>%
  count(seasons)
```

    ## # A tibble: 21 x 2
    ##    seasons     n
    ##      <dbl> <int>
    ##  1       1   447
    ##  2       2   118
    ##  3       3    71
    ##  4       4    60
    ##  5       5    60
    ##  6       6    34
    ##  7       7    31
    ##  8       8    17
    ##  9       9     7
    ## 10      10     9
    ## # … with 11 more rows
…
