…
``` r
df_raw <- 
  read_excel(filename)
```

``` r
df <- 
  df_raw %>% 
  janitor::clean_names() %>% 
  mutate(event_date = ymd(event_date))

df
```

    ## # A tibble: 19,248 x 28
    ##      iso event_id_cnty event_id_no_cnty event_date  year time_precision
    ##    <dbl> <chr>                    <dbl> <date>     <dbl>          <dbl>
    ##  1   840 USA18080                 18080 2020-05-01  2020              1
    ##  2   840 USA18081                 18081 2020-05-01  2020              1
    ##  3   840 USA18082                 18082 2020-05-01  2020              1
    ##  4   840 USA18083                 18083 2020-05-01  2020              1
    ##  5   840 USA18084                 18084 2020-05-01  2020              1
    ##  6   840 USA18085                 18085 2020-05-01  2020              1
    ##  7   840 USA18086                 18086 2020-05-01  2020              1
    ##  8   840 USA18087                 18087 2020-05-01  2020              1
    ##  9   840 USA18088                 18088 2020-05-01  2020              1
    ## 10   840 USA18089                 18089 2020-05-01  2020              1
    ## # … with 19,238 more rows, and 22 more variables: event_type <chr>,
    ## #   sub_event_type <chr>, actor1 <chr>, assoc_actor_1 <chr>, inter1 <dbl>,
    ## #   actor2 <chr>, assoc_actor_2 <chr>, inter2 <dbl>, interaction <dbl>,
    ## #   region <chr>, country <chr>, admin1 <chr>, admin2 <chr>, admin3 <lgl>,
    ## #   location <chr>, latitude <dbl>, longitude <dbl>, geo_precision <dbl>,
    ## #   source <chr>, source_scale <chr>, notes <chr>, fatalities <dbl>
…
There’s very “thick” data on every event\! One could spend *a lot* of
time looking deeper into these data.

What’s in the `actor\\d` columns?

``` r
df %>% 
  count(actor1) %>% 
  arrange(desc(n))
```

    ## # A tibble: 86 x 2
    ##    actor1                                                          n
    ##    <chr>                                                       <int>
    ##  1 Protesters (United States)                                  17792
    ##  2 Rioters (United States)                                       777
    ##  3 Police Forces of the United States (2017-)                     98
    ##  4 Government of the United States (2017-)                        77
    ##  5 Military Forces of the United States (2017-) National Guard    69
    ##  6 Sole Perpetrator (United States)                               68
    ##  7 Unidentified Communal Militia (United States)                  56
    ##  8 American Contingency                                           45
    ##  9 Unidentified Armed Group (United States)                       42
    ## 10 Civilians (United States)                                      21
    ## # … with 76 more rows

``` r
df %>% 
  count(actor2) %>% 
  arrange(desc(n))
```

    ## # A tibble: 25 x 2
    ##    actor2                                                                      n
    ##    <chr>                                                                   <int>
    ##  1 <NA>                                                                    16806
    ##  2 Police Forces of the United States (2017-)                               1183
    ##  3 Protesters (United States)                                                817
    ##  4 Civilians (United States)                                                 198
    ##  5 Sole Perpetrator (United States)                                           93
    ##  6 Rioters (United States)                                                    91
    ##  7 Police Forces of the United States (2017-) Protecting American Communi…    17
    ##  8 Private Security Forces (United States)                                     7
    ##  9 Police Forces of the United States (2017-) Immigration and Customs Enf…     6
    ## 10 Unidentified Armed Group (United States)                                    6
    ## # … with 15 more rows
…
